#FIG 3.2  Produced by xfig version 3.2.5b
Portrait
Center
Metric
A4      
100.00
Single
-2
1200 2
1 3 0 2 7 7 100 -1 -1 0.000 0 3.1416 7177 4005 68 68 7177 4005 7109 4005
2 3 0 0 0 4 195 -1 10 0.000 0 0 -1 0 0 25
	 5805 6930 5670 7245 5895 7605 6120 8145 6435 8145 6750 8235
	 6210 8190 6615 8280 6705 8370 6435 8280 6255 8280 6480 8595
	 6390 8595 5985 8235 5670 8235 5490 8325 5445 8235 5670 8145
	 5940 8145 5940 8100 5760 7695 5490 7290 5580 6930 5715 6885
	 5805 6930
2 3 0 0 0 4 195 -1 10 0.000 0 0 -1 0 0 25
	 5085 6570 4950 6885 5175 7245 5400 7785 5715 7785 6030 7875
	 5490 7830 5895 7920 5985 8010 5715 7920 5535 7920 5760 8235
	 5670 8235 5265 7875 4950 7875 4770 7965 4725 7875 4950 7785
	 5220 7785 5220 7740 5040 7335 4770 6930 4860 6570 4995 6525
	 5085 6570
3 3 0 0 7 0 150 -1 20 0.000 0 0 0 28
	 6705 4815 6390 4770 6075 4770 5940 4725 5760 4860 5400 5085
	 4455 5670 3735 5985 3015 6300 2835 6390 2880 6435 2565 6570
	 2430 6615 2385 6750 2520 6840 2655 6840 3060 6840 3645 6750
	 4365 6615 5625 6435 5940 6390 6210 6345 6390 6255 6660 6075
	 6885 5850 7020 5535 7110 5220 7020 4995
	 -1.000 -1.000 -1.000 -1.000 -1.000 -1.000 -1.000 -1.000
	 -1.000 -1.000 -1.000 -1.000 -1.000 -1.000 -1.000 -1.000
	 -1.000 -1.000 -1.000 -1.000 -1.000 -1.000 -1.000 -1.000
	 -1.000 -1.000 -1.000 -1.000
3 3 0 1 0 31 160 -1 20 0.000 0 0 0 9
	 8100 4095 7875 4005 7605 3915 7425 3915 7470 4185 7695 4185
	 7830 4140 8055 4140 8100 4140
	 -1.000 -1.000 -1.000 -1.000 -1.000 -1.000 -1.000 -1.000
	 -1.000
3 3 0 1 0 0 150 -1 20 0.000 0 0 0 32
	 7678 4042 7740 3960 7650 3915 7470 3825 7335 3735 7065 3600
	 6750 3600 6615 3690 6705 3780 6840 3915 7019 4135 7020 3960
	 7065 3960 7020 4095 7020 4320 7020 4590 7110 4770 7245 4950
	 7290 4950 7290 4815 7335 4635 7515 4320 7605 4230 7713 4211
	 7744 4200 7778 4146 7694 4157 7674 4161 7695 4185 7644 4142
	 7578 4119 7555 4042
	 -1.000 -1.000 -1.000 -1.000 -1.000 -1.000 -1.000 -1.000
	 -1.000 -1.000 -1.000 -1.000 -1.000 -1.000 -1.000 -1.000
	 -1.000 -1.000 -1.000 -1.000 -1.000 -1.000 -1.000 -1.000
	 -1.000 -1.000 -1.000 -1.000 -1.000 -1.000 -1.000 -1.000
3 3 0 0 0 0 190 -1 19 0.000 0 0 0 28
	 8100 4095 7830 4140 7650 4185 7380 4500 7290 4860 7245 5400
	 7020 5940 6660 6390 6255 6705 5850 6930 5490 6975 4860 6840
	 4455 6705 4095 6615 3510 6480 3960 5985 4320 5805 4500 5715
	 4725 5535 5400 5085 5895 4770 6075 4545 6255 4050 6435 3780
	 6705 3645 7065 3645 7380 3780 7515 3870
	 -1.000 -1.000 -1.000 -1.000 -1.000 -1.000 -1.000 -1.000
	 -1.000 -1.000 -1.000 -1.000 -1.000 -1.000 -1.000 -1.000
	 -1.000 -1.000 -1.000 -1.000 -1.000 -1.000 -1.000 -1.000
	 -1.000 -1.000 -1.000 -1.000
3 3 0 0 0 0 170 -1 18 0.000 0 0 0 19
	 7020 3780 6660 3690 6345 3825 6255 3960 6255 4050 6210 4140
	 6075 4455 5985 4545 5940 4680 6165 4905 6345 4950 6615 4905
	 6840 4860 7065 4770 7200 4545 7245 4365 7245 4185 7110 3870
	 7020 3780
	 -1.000 -1.000 -1.000 -1.000 -1.000 -1.000 -1.000 -1.000
	 -1.000 -1.000 -1.000 -1.000 -1.000 -1.000 -1.000 -1.000
	 -1.000 -1.000 -1.000
