#FIG 3.2  Produced by xfig version 3.2.7a
Landscape
Center
Metric
A4
100.00
Single
-2
1200 2
2 1 0 1 0 7 50 -1 -1 0.000 0 0 -1 1 1 2
	2 1 1.00 36.67 73.33
	8 1 1.00 36.67 73.33
	 2115 4560 4426 4560
2 1 0 1 0 7 50 -1 -1 0.000 0 0 -1 1 1 2
	2 1 1.00 36.67 73.33
	8 1 1.00 36.67 73.33
	 3381 3927 5692 3927
2 1 0 1 0 7 50 -1 -1 0.000 0 0 -1 1 1 2
	2 1 1.00 36.67 73.33
	8 1 1.00 36.67 73.33
	 4619 4560 6930 4560
3 0 1 1 0 7 50 -1 -1 3.000 0 0 0 10
	 4615 4556 4560 4512 4566 4426 4604 4342 4784 4293 5448 4338
	 5887 4279 6034 4104 5914 3977 5673 3932
	 0.000 1.000 1.000 1.000 1.000 1.000 1.000 1.000
	 1.000 0.000
3 0 1 1 0 7 50 -1 -1 3.000 0 0 0 11
	 4418 4566 4479 4526 4483 4424 4457 4340 4248 4282 3592 4326
	 3153 4267 3011 4186 2997 4041 3147 3940 3368 3926
	 0.000 1.000 1.000 1.000 1.000 1.000 1.000 1.000
	 1.000 1.000 0.000
4 2 0 50 -1 0 8 0.0000 7 105 675 5648 3880 \\code{return}\001
4 2 0 50 -1 16 8 0.0000 5 105 210 4420 4707 Call\001
4 0 0 50 -1 16 8 0.0000 5 105 495 3470 3881 Function\001
