#FIG 3.2  Produced by xfig version 3.2.7a
Portrait
Center
Metric
A4
100.00
Single
-2
1200 2
1 4 0 1 0 0 50 -1 20 0.000 1 0.0000 6188 3843 97 97 6091 3843 6285 3843
2 1 0 3 0 7 48 -1 -1 0.000 0 0 -1 0 0 2
	 6634 3512 6621 3685
3 3 0 0 0 0 50 -1 20 0.000 0 0 0 10
	 6604 4031 6549 4113 6555 4146 6778 4146 7029 4155 7157 4162
	 7104 4061 6977 4034 6836 4031 6696 4031
	 -0.500 -0.500 -0.500 -0.500 -0.500 -0.500 -0.500 -0.500
	 -0.500 -0.500
3 3 0 0 0 0 50 -1 20 0.000 0 0 0 15
	 4010 6070 4157 5920 4229 5815 4320 5727 4353 5688 4304 5655
	 4203 5655 4065 5665 3957 5678 3869 5727 3778 5819 3761 5914
	 3778 6008 3817 6080 3935 6097
	 -0.500 -0.500 -0.500 -0.500 -0.500 -0.500 -0.500 -0.500
	 -0.500 -0.500 -0.500 -0.500 -0.500 -0.500 -0.500
3 3 0 0 0 0 50 -1 20 0.000 0 0 0 27
	 3791 5695 3657 5812 3520 5897 3435 5936 3418 5982 3451 6054
	 3405 6146 3203 6217 2967 6286 2820 6329 2657 6404 2529 6463
	 2408 6515 2307 6538 2147 6626 2078 6623 2310 6495 2441 6469
	 2588 6387 2791 6237 2951 6083 3180 5907 3431 5701 3546 5636
	 3637 5600 3722 5606 3765 5639
	 -0.500 -0.500 -0.500 -0.500 -0.500 -0.500 -0.500 -0.500
	 -0.500 -0.500 -0.500 -0.500 -0.500 -0.500 -0.500 -0.500
	 -0.500 -0.500 -0.500 -0.500 -0.500 -0.500 -0.500 -0.500
	 -0.500 -0.500 -0.500
3 1 0 0 0 29 58 -1 16 0.000 0 0 0 39
	 2457 7021 2046 6914 2430 6660 2970 6030 3690 5445 3870 5355
	 4366 5005 4725 4635 4950 4455 5175 4050 5393 3697 5536 3512
	 5717 3346 5993 3270 6345 3285 6660 3465 6795 3690 6840 3825
	 6993 3982 7199 4126 7131 4204 6915 4208 6778 4227 6676 4296
	 6615 4455 6660 4905 6716 5090 6660 5400 6559 5659 6345 5940
	 5940 6300 5535 6660 5355 6795 5040 6840 4860 6930 4500 7020
	 4156 7083 3638 7083 2970 7020
	 1.000 1.000 1.000 1.000 1.000 1.000 1.000 1.000
	 1.000 1.000 1.000 1.000 1.000 1.000 1.000 1.000
	 1.000 1.000 1.000 1.000 1.000 1.000 1.000 1.000
	 1.000 1.000 1.000 1.000 1.000 1.000 1.000 1.000
	 1.000 1.000 1.000 1.000 1.000 1.000 1.000
3 1 0 0 0 7 50 -1 20 0.000 0 0 0 11
	 5859 3404 6026 3541 6183 3597 6474 3639 6480 3564 6484 3472
	 6327 3342 6193 3289 5990 3283 5882 3348 5863 3378
	 1.000 1.000 1.000 1.000 1.000 1.000 1.000 1.000
	 1.000 1.000 1.000
3 3 0 0 0 7 50 -1 7 0.000 0 0 0 11
	 6621 4012 6562 4005 6569 3953 6722 3940 6814 3887 6840 3855
	 6931 3923 7023 4012 7055 4041 6915 4038 6719 4025
	 -0.500 -0.500 -0.500 -0.500 -0.500 -0.500 -0.500 -0.500
	 -0.500 -0.500 -0.500
3 3 0 0 0 25 50 -1 7 0.000 0 0 0 19
	 3036 6384 3317 6351 3706 6257 3987 6195 4336 6217 4680 6155
	 4931 6080 4928 5979 4761 6038 4555 6110 4333 6136 4206 6155
	 4078 6136 3833 6165 3667 6181 3539 6204 3350 6263 3167 6319
	 2997 6368
	 -0.500 -0.500 -0.500 -0.500 -0.500 -0.500 -0.500 -0.500
	 -0.500 -0.500 -0.500 -0.500 -0.500 -0.500 -0.500 -0.500
	 -0.500 -0.500 -0.500
3 3 0 0 0 30 52 -1 25 0.000 0 0 0 17
	 2614 6515 2856 6417 2987 6374 3180 6322 3392 6244 3552 6195
	 3748 6178 3931 6172 4003 6149 3974 5933 3729 6015 3529 6097
	 3323 6155 2931 6280 2742 6355 2644 6436 2572 6512
	 -0.500 -0.500 -0.500 -0.500 -0.500 -0.500 -0.500 -0.500
	 -0.500 -0.500 -0.500 -0.500 -0.500 -0.500 -0.500 -0.500
	 -0.500
3 3 0 0 0 7 50 -1 4 0.000 0 0 0 25
	 569 7838 673 7665 918 7525 1320 7276 1559 7165 1856 6995
	 2052 6914 2229 6825 2336 6809 2444 6806 2572 6740 2703 6721
	 2735 6789 2591 6864 2359 7002 2036 7159 1536 7384 1297 7485
	 977 7681 823 7760 738 7838 729 7904 673 7900 601 7887
	 549 7871
	 -0.500 -0.500 -0.500 -0.500 -0.500 -0.500 -0.500 -0.500
	 -0.500 -0.500 -0.500 -0.500 -0.500 -0.500 -0.500 -0.500
	 -0.500 -0.500 -0.500 -0.500 -0.500 -0.500 -0.500 -0.500
	 -0.500
3 3 0 0 0 7 52 -1 15 0.000 0 0 0 13
	 6030 4614 6023 4884 6030 5199 6053 5357 6225 5544 6458 5612
	 6593 5409 6660 5214 6690 5034 6645 4839 6578 4667 6563 4599
	 6240 4524
	 -0.500 -0.500 -0.500 -0.500 -0.500 -0.500 -0.500 -0.500
	 -0.500 -0.500 -0.500 -0.500 -0.500
3 0 0 3 0 7 48 -1 -1 0.000 0 0 0 3
	 4074 5893 4042 6038 4072 6155
	 0.000 1.000 0.000
3 0 0 3 0 7 48 -1 -1 0.000 0 0 0 4
	 4146 5808 4121 5982 4159 6132 4150 6139
	 0.000 1.000 1.000 0.000
3 0 0 3 0 7 48 -1 -1 0.000 0 0 0 4
	 4237 5775 4212 5949 4250 6099 4258 6175
	 0.000 1.000 1.000 0.000
3 0 0 4 0 7 48 -1 -1 0.000 0 0 0 4
	 4323 5708 4298 5882 4336 6032 4330 6172
	 0.000 1.000 1.000 0.000
3 0 0 4 0 7 48 -1 -1 0.000 0 0 0 4
	 4418 5672 4403 5859 4441 6009 4457 6139
	 0.000 1.000 1.000 0.000
3 0 0 4 0 7 48 -1 -1 0.000 0 0 0 4
	 4526 5642 4508 5829 4546 5979 4606 6084
	 0.000 1.000 1.000 0.000
3 0 0 4 0 7 48 -1 -1 0.000 0 0 0 4
	 4601 5613 4606 5784 4644 5934 4704 6039
	 0.000 1.000 1.000 0.000
3 0 0 4 0 7 48 -1 -1 0.000 0 0 0 4
	 4657 5613 4735 5740 4784 5887 4817 5998
	 0.000 1.000 1.000 0.000
3 0 0 4 0 7 48 -1 -1 0.000 0 0 0 4
	 4716 5594 4794 5721 4843 5868 4876 5979
	 0.000 1.000 1.000 0.000
3 0 0 3 0 7 48 -1 -1 0.000 0 0 0 4
	 4798 5577 4876 5704 4925 5851 4958 5962
	 0.000 1.000 1.000 0.000
3 0 0 3 0 7 48 -1 -1 0.000 0 0 0 4
	 4866 5541 4944 5668 4993 5815 5049 5920
	 0.000 1.000 1.000 0.000
3 0 0 3 0 7 48 -1 -1 0.000 0 0 0 4
	 4942 5522 5020 5649 5072 5780 5134 5881
	 0.000 1.000 1.000 0.000
3 0 0 3 0 7 48 -1 -1 0.000 0 0 0 4
	 5026 5512 5111 5626 5173 5763 5196 5842
	 0.000 1.000 1.000 0.000
3 0 0 3 0 7 48 -1 -1 0.000 0 0 0 4
	 6284 3312 6408 3400 6477 3476 6504 3670
	 0.000 1.000 1.000 0.000
3 0 0 3 0 7 50 -1 -1 0.000 0 0 0 9
	 6281 3835 6278 3753 6238 3695 6147 3659 6055 3662 6003 3721
	 5987 3809 6055 3894 6131 3923
	 0.000 1.000 1.000 1.000 1.000 1.000 1.000 1.000
	 0.000
3 2 0 3 0 7 50 -1 -1 0.000 0 0 0 4
	 6252 3695 6131 3639 5925 3659 5869 3665
	 0.000 -0.500 -0.500 0.000
3 2 0 3 0 7 50 -1 -1 0.000 0 0 0 3
	 6016 3851 5921 3793 5836 3773
	 0.000 -0.500 0.000
3 3 0 0 0 7 53 -1 16 0.000 0 0 0 20
	 5738 3364 5801 3561 5879 3724 6258 3744 6451 3799 6578 3855
	 6637 3881 6735 3920 6827 3884 6882 3832 6820 3731 6774 3629
	 6673 3515 6510 3348 6421 3306 6323 3266 6229 3266 6091 3253
	 5938 3266 5732 3302
	 -0.500 -0.500 -0.500 -0.500 -0.500 -0.500 -0.500 -0.500
	 -0.500 -0.500 -0.500 -0.500 -0.500 -0.500 -0.500 -0.500
	 -0.500 -0.500 -0.500 -0.500
3 3 0 0 0 24 54 -1 11 0.000 0 0 0 28
	 5454 4172 5529 4433 5696 4551 5889 4613 6059 4597 6268 4528
	 6569 4387 6719 4266 6827 4214 6938 4211 7114 4204 7193 4172
	 7055 4002 6970 3943 6912 3881 6840 3757 6735 3695 6598 3685
	 6366 3711 6281 3766 6291 3878 6186 3956 6036 4093 5866 4201
	 5693 4204 5588 4129 5506 4064 5457 4106
	 -0.500 -0.500 -0.500 -0.500 -0.500 -0.500 -0.500 -0.500
	 -0.500 -0.500 -0.500 -0.500 -0.500 -0.500 -0.500 -0.500
	 -0.500 -0.500 -0.500 -0.500 -0.500 -0.500 -0.500 -0.500
	 -0.500 -0.500 -0.500 -0.500
3 3 0 0 0 7 50 -1 14 0.000 0 0 0 18
	 4487 5312 4333 5492 3970 5773 3876 6018 4016 6191 4314 6188
	 4948 6018 5111 5985 5261 5864 5546 5639 5725 5436 5784 5146
	 5667 5064 5386 5061 5108 5080 4957 5146 4709 5191 4559 5244
	 -0.500 -0.500 -0.500 -0.500 -0.500 -0.500 -0.500 -0.500
	 -0.500 -0.500 -0.500 -0.500 -0.500 -0.500 -0.500 -0.500
	 -0.500 -0.500
3 0 0 3 0 7 48 -1 -1 0.000 0 0 0 4
	 6356 3302 6480 3390 6549 3466 6559 3619
	 0.000 1.000 1.000 0.000
3 3 0 0 0 24 50 -1 9 0.000 0 0 0 23
	 6059 7619 5856 7649 5696 7734 5601 7793 5435 7757 5281 7704
	 5124 7649 4993 7554 4801 7371 4709 7273 4614 7142 4608 7031
	 4493 7012 4425 7064 4627 7325 4830 7472 5000 7646 5196 7717
	 5516 7822 5696 7858 5817 7766 5905 7688 6069 7678
	 -0.500 -0.500 -0.500 -0.500 -0.500 -0.500 -0.500 -0.500
	 -0.500 -0.500 -0.500 -0.500 -0.500 -0.500 -0.500 -0.500
	 -0.500 -0.500 -0.500 -0.500 -0.500 -0.500 -0.500
3 3 0 0 0 28 59 -1 14 0.000 0 0 0 33
	 3941 7106 4085 7263 4301 7407 4392 7518 4624 7714 4637 7763
	 4516 7789 4389 7842 4304 7887 4278 7963 4284 8057 4330 8113
	 4467 8041 4569 7953 4712 7894 4938 7897 5193 7874 5343 7930
	 5457 8008 5572 8012 5562 7891 5454 7848 5350 7753 5225 7717
	 5052 7678 4876 7668 4804 7642 4611 7515 4503 7417 4327 7204
	 4242 7113 4203 7057 4016 7002
	 -0.500 -0.500 -0.500 -0.500 -0.500 -0.500 -0.500 -0.500
	 -0.500 -0.500 -0.500 -0.500 -0.500 -0.500 -0.500 -0.500
	 -0.500 -0.500 -0.500 -0.500 -0.500 -0.500 -0.500 -0.500
	 -0.500 -0.500 -0.500 -0.500 -0.500 -0.500 -0.500 -0.500
	 -0.500
3 3 0 0 0 25 53 -1 10 0.000 0 0 0 23
	 4291 8100 4301 7959 4399 7920 4595 7845 4752 7815 4833 7806
	 5033 7829 5167 7819 5323 7832 5454 7851 5526 7923 5552 7976
	 5461 7963 5386 7920 5167 7887 5046 7887 4905 7881 4732 7884
	 4585 7900 4523 7946 4435 8051 4382 8093 4327 8113
	 -0.500 -0.500 -0.500 -0.500 -0.500 -0.500 -0.500 -0.500
	 -0.500 -0.500 -0.500 -0.500 -0.500 -0.500 -0.500 -0.500
	 -0.500 -0.500 -0.500 -0.500 -0.500 -0.500 -0.500
3 3 0 0 0 28 59 -1 17 0.000 0 0 0 26
	 4382 7074 4640 7319 4801 7476 4984 7626 5055 7665 5209 7721
	 5340 7773 5565 7864 5794 7799 5879 7724 6069 7678 6091 7626
	 6039 7583 5820 7626 5650 7721 5549 7740 5379 7681 5222 7570
	 5121 7485 4928 7355 4814 7240 4791 7116 4748 7028 4755 6969
	 4562 6914 4356 6946
	 -0.500 -0.500 -0.500 -0.500 -0.500 -0.500 -0.500 -0.500
	 -0.500 -0.500 -0.500 -0.500 -0.500 -0.500 -0.500 -0.500
	 -0.500 -0.500 -0.500 -0.500 -0.500 -0.500 -0.500 -0.500
	 -0.500 -0.500
3 3 0 0 0 0 48 -1 20 0.000 0 0 0 15
	 6095 4067 6003 4139 5912 4214 5902 4325 5902 4355 6042 4391
	 6144 4280 6287 4273 6497 4129 6546 4074 6526 3985 6448 3936
	 6317 3982 6252 4061 6160 4057
	 -0.500 -0.500 -0.500 -0.500 -0.500 -0.500 -0.500 -0.500
	 -0.500 -0.500 -0.500 -0.500 -0.500 -0.500 -0.500
3 1 0 0 0 10 49 -1 14 0.000 0 0 0 18
	 4238 5829 4396 5672 4621 5610 4853 5554 5093 5499 5288 5537
	 5393 5597 5385 5717 5160 5852 4996 5912 4891 5972 4696 6069
	 4463 6099 4306 6092 4156 6152 4035 6152 4058 6024 4163 5927
	 1.000 1.000 1.000 1.000 1.000 1.000 1.000 1.000
	 1.000 1.000 1.000 1.000 1.000 1.000 1.000 1.000
	 1.000 1.000
3 3 0 0 0 26 50 -1 6 0.000 0 0 0 32
	 4003 6806 4225 6535 4483 6388 4650 6290 4997 6074 5258 5927
	 5415 5881 5559 5849 5794 5770 6003 5940 6108 5966 6251 5911
	 6258 6002 6176 6091 6039 6195 5931 6306 5833 6365 5755 6466
	 5566 6595 5444 6692 5281 6770 5173 6816 4997 6891 4872 6904
	 4729 6930 4598 6947 4425 6950 4300 6937 4202 6934 4039 6898
	 3987 6881 3977 6839
	 -0.500 -0.500 -0.500 -0.500 -0.500 -0.500 -0.500 -0.500
	 -0.500 -0.500 -0.500 -0.500 -0.500 -0.500 -0.500 -0.500
	 -0.500 -0.500 -0.500 -0.500 -0.500 -0.500 -0.500 -0.500
	 -0.500 -0.500 -0.500 -0.500 -0.500 -0.500 -0.500 -0.500
3 3 0 0 0 7 55 -1 18 0.000 0 0 0 18
	 2732 7008 3252 7015 3699 6943 3823 6871 3872 6734 3833 6498
	 3774 6335 3778 6293 3817 6031 3830 5822 3872 5695 3640 5595
	 3327 5750 3013 6044 2755 6280 2500 6547 2382 6724 2180 6851
	 -0.500 -0.500 -0.500 -0.500 -0.500 -0.500 -0.500 -0.500
	 -0.500 -0.500 -0.500 -0.500 -0.500 -0.500 -0.500 -0.500
	 -0.500 -0.500
3 2 0 4 0 7 50 -1 -1 0.000 0 0 0 5
	 3640 5615 3816 5696 3877 5730 4005 5696 4080 5676
	 0.000 -0.500 -0.500 -0.500 0.000
3 0 0 0 0 25 47 -1 12 0.000 0 0 0 10
	 3652 5479 3805 5440 3775 5495 3688 5595 3583 5618 3376 5738
	 3242 5845 3306 5714 3388 5627 3535 5528
	 0.000 1.000 1.000 1.000 1.000 1.000 1.000 1.000
	 1.000 0.000
3 3 0 0 0 30 51 -1 27 0.000 0 0 0 18
	 5768 3930 5765 4195 5801 4433 6016 4570 6366 4701 6555 4691
	 6572 4590 6569 4427 6500 4351 6399 4231 6268 4054 6281 3946
	 6287 3884 6186 3956 6065 3963 5957 3914 5856 3874 5801 3874
	 -0.500 -0.500 -0.500 -0.500 -0.500 -0.500 -0.500 -0.500
	 -0.500 -0.500 -0.500 -0.500 -0.500 -0.500 -0.500 -0.500
	 -0.500 -0.500
3 3 0 0 0 30 57 -1 18 0.000 0 0 0 13
	 5852 3723 6081 3741 6192 3741 6276 3762 6294 3828 6288 3888
	 6201 3951 6090 3960 5958 3915 5907 3891 5837 3867 5807 3813
	 5828 3752
	 -0.500 -0.500 -0.500 -0.500 -0.500 -0.500 -0.500 -0.500
	 -0.500 -0.500 -0.500 -0.500 -0.500
