#FIG 3.2  Produced by xfig version 3.2.7a
Landscape
Center
Metric
A4
100.00
Single
-2
1200 2
2 1 0 1 0 7 50 -1 -1 0.000 0 0 -1 0 0 2
	 3461 4111 4135 3497
2 1 0 1 0 7 50 -1 -1 0.000 0 0 -1 0 0 2
	 3280 4110 2604 3708
2 1 0 1 0 7 50 -1 -1 0.000 0 0 -1 0 0 2
	 4132 3335 3473 2732
2 1 0 1 0 7 50 -1 -1 0.000 0 0 -1 0 0 2
	 3375 2565 3375 2295
2 1 0 1 0 7 50 -1 -1 0.000 0 0 -1 0 0 2
	 2607 3111 3290 2732
2 1 0 1 0 7 50 -1 -1 0.000 0 0 -1 0 0 2
	 2521 3553 2521 3276
4 1 0 50 -1 16 8 0.0000 7 120 1635 3391 2683 \\code{memory_order_acq_rel}\001
4 1 0 50 -1 16 8 0.0000 7 120 1665 3375 2250 \\code{memory_order_seq_cst}\001
4 1 0 50 -1 16 8 0.0000 7 120 1635 3384 4208 \\code{memory_order_relaxed}\001
4 1 0 50 -1 16 8 0.0000 7 120 1620 2520 3206 \\code{memory_order_acquire}\001
4 1 0 50 -1 16 8 0.0000 7 120 1710 2513 3664 \\code{memory_order_consume}\001
4 1 0 50 -1 16 8 0.0000 7 120 1605 4232 3440 \\code{memory_order_release}\001
