%!PS-Adobe-3.0 EPSF-3.0
%%Creator: graphviz version 2.40.1 (20161225.0304)
%%Title: depend
%%Pages: 1
%%BoundingBox: 36 36 531 368
%%EndComments
save
%%BeginProlog
/DotDict 200 dict def
DotDict begin

/setupLatin1 {
mark
/EncodingVector 256 array def
 EncodingVector 0

ISOLatin1Encoding 0 255 getinterval putinterval
EncodingVector 45 /hyphen put

% Set up ISO Latin 1 character encoding
/starnetISO {
        dup dup findfont dup length dict begin
        { 1 index /FID ne { def }{ pop pop } ifelse
        } forall
        /Encoding EncodingVector def
        currentdict end definefont
} def
/Times-Roman starnetISO def
/Times-Italic starnetISO def
/Times-Bold starnetISO def
/Times-BoldItalic starnetISO def
/Helvetica starnetISO def
/Helvetica-Oblique starnetISO def
/Helvetica-Bold starnetISO def
/Helvetica-BoldOblique starnetISO def
/Courier starnetISO def
/Courier-Oblique starnetISO def
/Courier-Bold starnetISO def
/Courier-BoldOblique starnetISO def
cleartomark
} bind def

%%BeginResource: procset graphviz 0 0
/coord-font-family /Times-Roman def
/default-font-family /Times-Roman def
/coordfont coord-font-family findfont 8 scalefont def

/InvScaleFactor 1.0 def
/set_scale {
       dup 1 exch div /InvScaleFactor exch def
       scale
} bind def

% styles
/solid { [] 0 setdash } bind def
/dashed { [9 InvScaleFactor mul dup ] 0 setdash } bind def
/dotted { [1 InvScaleFactor mul 6 InvScaleFactor mul] 0 setdash } bind def
/invis {/fill {newpath} def /stroke {newpath} def /show {pop newpath} def} bind def
/bold { 2 setlinewidth } bind def
/filled { } bind def
/unfilled { } bind def
/rounded { } bind def
/diagonals { } bind def
/tapered { } bind def

% hooks for setting color 
/nodecolor { sethsbcolor } bind def
/edgecolor { sethsbcolor } bind def
/graphcolor { sethsbcolor } bind def
/nopcolor {pop pop pop} bind def

/beginpage {	% i j npages
	/npages exch def
	/j exch def
	/i exch def
	/str 10 string def
	npages 1 gt {
		gsave
			coordfont setfont
			0 0 moveto
			(\() show i str cvs show (,) show j str cvs show (\)) show
		grestore
	} if
} bind def

/set_font {
	findfont exch
	scalefont setfont
} def

% draw text fitted to its expected width
/alignedtext {			% width text
	/text exch def
	/width exch def
	gsave
		width 0 gt {
			[] 0 setdash
			text stringwidth pop width exch sub text length div 0 text ashow
		} if
	grestore
} def

/boxprim {				% xcorner ycorner xsize ysize
		4 2 roll
		moveto
		2 copy
		exch 0 rlineto
		0 exch rlineto
		pop neg 0 rlineto
		closepath
} bind def

/ellipse_path {
	/ry exch def
	/rx exch def
	/y exch def
	/x exch def
	matrix currentmatrix
	newpath
	x y translate
	rx ry scale
	0 0 1 0 360 arc
	setmatrix
} bind def

/endpage { showpage } bind def
/showpage { } def

/layercolorseq
	[	% layer color sequence - darkest to lightest
		[0 0 0]
		[.2 .8 .8]
		[.4 .8 .8]
		[.6 .8 .8]
		[.8 .8 .8]
	]
def

/layerlen layercolorseq length def

/setlayer {/maxlayer exch def /curlayer exch def
	layercolorseq curlayer 1 sub layerlen mod get
	aload pop sethsbcolor
	/nodecolor {nopcolor} def
	/edgecolor {nopcolor} def
	/graphcolor {nopcolor} def
} bind def

/onlayer { curlayer ne {invis} if } def

/onlayers {
	/myupper exch def
	/mylower exch def
	curlayer mylower lt
	curlayer myupper gt
	or
	{invis} if
} def

/curlayer 0 def

%%EndResource
%%EndProlog
%%BeginSetup
14 default-font-family set_font
% /arrowlength 10 def
% /arrowwidth 5 def

% make sure pdfmark is harmless for PS-interpreters other than Distiller
/pdfmark where {pop} {userdict /pdfmark /cleartomark load put} ifelse
% make '<<' and '>>' safe on PS Level 1 devices
/languagelevel where {pop languagelevel}{1} ifelse
2 lt {
    userdict (<<) cvn ([) cvn load put
    userdict (>>) cvn ([) cvn load put
} if

%%EndSetup
setupLatin1
%%Page: 1 1
%%PageBoundingBox: 36 36 531 368
%%PageOrientation: Portrait
0 0 1 beginpage
gsave
36 36 495 332 boxprim clip newpath
1 1 set_scale 0 rotate 40 40 translate
% myproject∷structures∷list
gsave
1 setlinewidth
0 0 0 nodecolor
227.1384 234 110.4804 18 ellipse_path stroke
0 0 0 nodecolor
14 /Times-Roman set_font
150.1384 230.3 moveto 154 (myproject∷structures∷list) alignedtext
grestore
% myproject∷structures
gsave
1 setlinewidth
0 0 0 nodecolor
190.1384 90 90.1842 18 ellipse_path stroke
0 0 0 nodecolor
14 /Times-Roman set_font
128.6384 86.3 moveto 123 (myproject∷structures) alignedtext
grestore
% myproject∷structures∷list->myproject∷structures
gsave
1 setlinewidth
0 0 0 edgecolor
newpath 254.9504 216.4404 moveto
266.9243 207.2107 279.6469 194.7413 286.1384 180 curveto
292.5866 165.3569 294.2159 157.8114 286.1384 144 curveto
277.3824 129.0286 262.7805 117.8874 247.5741 109.7417 curveto
stroke
0 0 0 edgecolor
newpath 249.1043 106.5938 moveto
238.5905 105.2855 lineto
245.9936 112.8647 lineto
closepath fill
1 setlinewidth
solid
0 0 0 edgecolor
newpath 249.1043 106.5938 moveto
238.5905 105.2855 lineto
245.9936 112.8647 lineto
closepath stroke
grestore
% myproject
gsave
1 setlinewidth
0 0 0 nodecolor
72.1384 18 46.5926 18 ellipse_path stroke
0 0 0 nodecolor
14 /Times-Roman set_font
44.1384 14.3 moveto 56 (myproject) alignedtext
grestore
% myproject∷structures∷list->myproject
gsave
1 setlinewidth
0 0 0 edgecolor
newpath 139.4447 222.9892 moveto
87.2486 214.4328 28.1439 200.5226 12.1384 180 curveto
-20.476 138.1811 20.59 76.8433 49.1116 42.9023 curveto
stroke
0 0 0 edgecolor
newpath 51.7971 45.1475 moveto
55.6849 35.2917 lineto
46.4995 40.5719 lineto
closepath fill
1 setlinewidth
solid
0 0 0 edgecolor
newpath 51.7971 45.1475 moveto
55.6849 35.2917 lineto
46.4995 40.5719 lineto
closepath stroke
grestore
% myproject∷structures∷element
gsave
1 setlinewidth
0 0 0 nodecolor
149.1384 162 128.0773 18 ellipse_path stroke
0 0 0 nodecolor
14 /Times-Roman set_font
58.6384 158.3 moveto 181 (myproject∷structures∷element) alignedtext
grestore
% myproject∷structures∷list->myproject∷structures∷element
gsave
1 setlinewidth
0 0 0 edgecolor
newpath 207.8575 216.2022 moveto
198.2011 207.2887 186.356 196.3548 175.84 186.6476 curveto
stroke
0 0 0 edgecolor
newpath 178.1899 184.0536 moveto
168.4678 179.8425 lineto
173.4419 189.1972 lineto
closepath fill
1 setlinewidth
solid
0 0 0 edgecolor
newpath 178.1899 184.0536 moveto
168.4678 179.8425 lineto
173.4419 189.1972 lineto
closepath stroke
grestore
% C∷io
gsave
1 setlinewidth
0 0 0 nodecolor
365.1384 162 32.4942 18 ellipse_path stroke
0 0 0 nodecolor
14 /Times-Roman set_font
348.1384 158.3 moveto 34 (C∷io) alignedtext
grestore
% myproject∷structures∷list->C∷io
gsave
1 setlinewidth
0 0 0 edgecolor
newpath 260.1928 216.7542 moveto
282.101 205.3239 310.7167 190.3939 332.5325 179.0118 curveto
stroke
0 0 0 edgecolor
newpath 334.1795 182.1002 moveto
341.4264 174.3715 lineto
330.9415 175.8941 lineto
closepath fill
1 setlinewidth
solid
0 0 0 edgecolor
newpath 334.1795 182.1002 moveto
341.4264 174.3715 lineto
330.9415 175.8941 lineto
closepath stroke
grestore
% myproject∷structures->myproject
gsave
1 setlinewidth
0 0 0 edgecolor
newpath 161.8745 72.7542 moveto
145.1528 62.5512 123.8611 49.5596 106.2143 38.7921 curveto
stroke
0 0 0 edgecolor
newpath 107.7213 35.6115 moveto
97.3619 33.3906 lineto
104.0752 41.587 lineto
closepath fill
1 setlinewidth
solid
0 0 0 edgecolor
newpath 107.7213 35.6115 moveto
97.3619 33.3906 lineto
104.0752 41.587 lineto
closepath stroke
grestore
% another_project∷doit
gsave
1 setlinewidth
0 0 0 nodecolor
324.1384 306 89.0842 18 ellipse_path stroke
0 0 0 nodecolor
14 /Times-Roman set_font
263.6384 302.3 moveto 121 (another_project∷doit) alignedtext
grestore
% another_project∷doit->myproject∷structures∷list
gsave
1 setlinewidth
0 0 0 edgecolor
newpath 300.6574 288.5708 moveto
288.2135 279.3341 272.7438 267.8514 259.2095 257.8054 curveto
stroke
0 0 0 edgecolor
newpath 261.1928 254.9187 moveto
251.077 251.7689 lineto
257.0207 260.5395 lineto
closepath fill
1 setlinewidth
solid
0 0 0 edgecolor
newpath 261.1928 254.9187 moveto
251.077 251.7689 lineto
257.0207 260.5395 lineto
closepath stroke
grestore
% another_project
gsave
1 setlinewidth
0 0 0 nodecolor
421.1384 234 65.7887 18 ellipse_path stroke
0 0 0 nodecolor
14 /Times-Roman set_font
378.6384 230.3 moveto 85 (another_project) alignedtext
grestore
% another_project∷doit->another_project
gsave
1 setlinewidth
0 0 0 edgecolor
newpath 347.6194 288.5708 moveto
360.3418 279.1273 376.2272 267.3361 389.9733 257.1328 curveto
stroke
0 0 0 edgecolor
newpath 392.2647 259.7909 moveto
398.2083 251.0202 lineto
388.0925 254.1701 lineto
closepath fill
1 setlinewidth
solid
0 0 0 edgecolor
newpath 392.2647 259.7909 moveto
398.2083 251.0202 lineto
388.0925 254.1701 lineto
closepath stroke
grestore
% myproject∷structures∷element->myproject∷structures
gsave
1 setlinewidth
0 0 0 edgecolor
newpath 159.4844 143.8314 moveto
164.1325 135.6688 169.7124 125.87 174.8302 116.8827 curveto
stroke
0 0 0 edgecolor
newpath 178.0307 118.3352 moveto
179.9377 107.9134 lineto
171.9478 114.8713 lineto
closepath fill
1 setlinewidth
solid
0 0 0 edgecolor
newpath 178.0307 118.3352 moveto
179.9377 107.9134 lineto
171.9478 114.8713 lineto
closepath stroke
grestore
% myproject∷structures∷element->myproject
gsave
1 setlinewidth
0 0 0 edgecolor
newpath 123.7123 144.1623 moveto
112.0756 134.7093 99.1285 122.1322 91.1384 108 curveto
80.4291 89.0583 75.7373 64.7835 73.6913 46.2189 curveto
stroke
0 0 0 edgecolor
newpath 77.1563 45.6745 moveto
72.7668 36.0317 lineto
70.185 46.3071 lineto
closepath fill
1 setlinewidth
solid
0 0 0 edgecolor
newpath 77.1563 45.6745 moveto
72.7668 36.0317 lineto
70.185 46.3071 lineto
closepath stroke
grestore
% C
gsave
1 setlinewidth
0 0 0 nodecolor
365.1384 90 27 18 ellipse_path stroke
0 0 0 nodecolor
14 /Times-Roman set_font
360.1384 86.3 moveto 10 (C) alignedtext
grestore
% C∷io->C
gsave
1 setlinewidth
0 0 0 edgecolor
newpath 365.1384 143.8314 moveto
365.1384 136.131 365.1384 126.9743 365.1384 118.4166 curveto
stroke
0 0 0 edgecolor
newpath 368.6385 118.4132 moveto
365.1384 108.4133 lineto
361.6385 118.4133 lineto
closepath fill
1 setlinewidth
solid
0 0 0 edgecolor
newpath 368.6385 118.4132 moveto
365.1384 108.4133 lineto
361.6385 118.4133 lineto
closepath stroke
grestore
endpage
showpage
grestore
%%PageTrailer
%%EndPage: 1
%%Trailer
end
restore
%%EOF
